…
I generated a dataset based on this DAG. Let’s take a look at it:

    ## # A tibble: 10,000 x 3
    ##        d     z     y
    ##    <dbl> <dbl> <dbl>
    ##  1     0     0  51.7
    ##  2     0     0  50.1
    ##  3     0     0  45.3
    ##  4     0     0  49.1
    ##  5     0     0  52.6
    ##  6     0     0  50.1
    ##  7     0     0  46.3
    ##  8     0     0  47.8
    ##  9     0     0  47.9
    ## 10     0     0  47.1
    ## # ... with 9,990 more rows
…
